8 Count Outcome Regression - Ex: POssion and Negative Binomial | Encyclopedia of Quantitative Methods in R, vol. 4: Multiple Linear Regression
…
library(DescTools)    # Tools for Descriptive Statistics
library(texreghelpr)  # Helper Functions for generalized models

library(pscl)         # Political Science Computational Laboratory (ZIP)

8.1 Background

8.1.1 Raw Dataset

data_gss <- haven::read_spss("https://raw.githubusercontent.com/CEHS-research/data/master/Hoffmann_datasets/gss.sav") %>% 
  haven::as_factor()

data_gss

# A tibble: 2,903 x 20
      id marital divorce childs   age income polviews fund  attend spanking
   <dbl> <fct>   <fct>   <fct>  <dbl>  <dbl> <fct>    <fct> <fct>  <fct>   
 1   402 divorc~ yes     2         54     10 middle ~ <NA>  <NA>   <NA>    
 2  1473 widowed no      0         24      2 slight ~ <NA>  <NA>   <NA>    
 3  1909 widowed no      7         75     NA extreme~ <NA>  <NA>   <NA>    
 4   334 widowed yes     2         41     NA middle ~ <NA>  <NA>   <NA>    
 5  1751 married no      2         37     12 extreme~ <NA>  <NA>   <NA>    
 6   456 divorc~ yes     0         40     NA extreme~ <NA>  <NA>   <NA>    
 7   292 never ~ no      2         36      9 <NA>     <NA>  nearl~ <NA>    
 8  2817 married yes     3         33     NA middle ~ <NA>  sever~ <NA>    
 9  2810 never ~ no      0         18     NA middle ~ <NA>  once ~ <NA>    
10  2232 widowed no      2         35      6 middle ~ <NA>  sever~ <NA>    
# ... with 2,893 more rows, and 10 more variables: totrelig <dbl>,
#   sei <dbl>, pasei <dbl>, volteer <dbl>, female <fct>, nonwhite <fct>,
#   prayer <fct>, educate <dbl>, volrelig <fct>, polview1 <fct>
…
