10 D&H Ch6 - Statistical vs. Experimental Control: “PTSD” | Encyclopedia of Quantitative Methods in R, vol. 4: Multiple Linear Regression
…
10.4 ALTERNATIVE ANALYSIS

10.4.1 Longer Format of Repeated Measures

df_ptsd_long <- df_ptsd %>% 
  dplyr::select(-gain) %>% 
  tidyr::pivot_longer(cols = ends_with("test"),
                      names_to = c("time", ".value"),
                      names_pattern = "(.*)_(.*)") %>% 
  dplyr::mutate(time = factor(time,
                              levels = c("pre", "post")))

df_ptsd_long

# A tibble: 28 × 4
      id therapy      time   test
   <dbl> <fct>        <fct> <dbl>
 1     1 Experimental post      2
 2     1 Experimental pre       1
 3     2 Experimental post      4
 4     2 Experimental pre       3
 5     3 Experimental post      6
 6     3 Experimental pre       7
 7     4 Experimental post      6
 8     4 Experimental pre      10
 9     5 Experimental post      9
10     5 Experimental pre      13
# ℹ 18 more rows
…
