2 D&H Ch 2 - Simple Regression: “Minigolf” | Encyclopedia of Quantitative Methods in R, vol. 4: Multiple Linear Regression
…
[1] 0.636209

2.4.4 Residuals

round(fit_lm_golf$residuals, 2)

   1    2    3    4    5    6    7    8    9   10   11   12   13   14   15   16 
-0.5  0.5 -1.0  0.0  1.0 -1.5 -0.5  0.5  1.5 -2.0 -1.0  0.0  1.0  2.0 -1.5 -0.5 
  17   18   19   20   21   22   23 
 0.5  1.5 -1.0  0.0  1.0 -0.5  0.5 

broom::augment(fit_lm_golf) 

# A tibble: 23 × 8
       Y     X .fitted    .resid   .hat .sigma  .cooksd .std.resid
   <int> <int>   <dbl>     <dbl>  <dbl>  <dbl>    <dbl>      <dbl>
 1     2     0     2.5 -5.00e- 1 0.176    1.11 2.72e- 2     -0.505
 2     3     0     2.5  5.00e- 1 0.176    1.11 2.72e- 2      0.505
 3     2     1     3   -1.00e+ 0 0.102    1.09 5.33e- 2     -0.967
 4     3     1     3   -1.33e-15 0.102    1.12 6.42e-33      0    
 5     4     1     3    1.00e+ 0 0.102    1.09 5.33e- 2      0.967
 6     2     2     3.5 -1.50e+ 0 0.0582   1.06 6.20e- 2     -1.42 
 7     3     2     3.5 -5.00e- 1 0.0582   1.11 6.89e- 3     -0.472
 8     4     2     3.5  5.00e- 1 0.0582   1.11 6.89e- 3      0.472
 9     5     2     3.5  1.50e+ 0 0.0582   1.06 6.20e- 2      1.42 
10     2     3     4   -2   e+ 0 0.0435   1.02 7.98e- 2     -1.87 
# ℹ 13 more rows
…
