8 Ex: Cancer Experiment | Encyclopedia of Quantitative Methods in R, vol. 4: Multiple Linear Regression
…
fit_lm %>% 
  effects::Effect(focal.predictors = c("age"))

 age effect
age
     30      40      60      70      90 
199.357 192.246 178.024 170.913 156.691 

fit_lm %>% 
  effects::Effect(focal.predictors = c("age"),
                  xlevels = list(age = seq(from = 30, to = 90, by = 1))) %>% 
  data.frame() 

# A tibble: 61 × 5
     age   fit    se lower upper
   <dbl> <dbl> <dbl> <dbl> <dbl>
 1    30  199.  15.9  166.  232.
 2    31  199.  15.5  167.  231.
 3    32  198.  15.0  167.  229.
 4    33  197.  14.6  167.  227.
 5    34  197.  14.1  167.  226.
 6    35  196.  13.7  167.  224.
 7    36  195.  13.2  168.  222.
 8    37  194.  12.8  168.  221.
 9    38  194.  12.4  168.  219.
10    39  193.  12.0  168.  218.
# ℹ 51 more rows
…
