5 Ex: Ginzberg Depression | Encyclopedia of Quantitative Methods in R, vol. 4: Multiple Linear Regression
…
tibble::glimpse(df_ginz)

Rows: 82
Columns: 6
$ simplicity <dbl> 0.92983, 0.91097, 0.53366, 0.74118, 0.53366, 0.62799, 0.778…
$ fatalism   <dbl> 0.35589, 1.18439, -0.05837, 0.35589, 0.77014, 1.39152, 0.35…
$ depression <dbl> 0.59870, 0.72787, 0.53411, 0.56641, 0.50182, 0.56641, 0.469…
$ adjsimp    <dbl> 0.75934, 0.72717, 0.62176, 0.83522, 0.47697, 0.40664, 0.845…
$ adjfatal   <dbl> 0.10673, 0.99915, 0.03811, 0.42218, 0.81423, 1.23261, 0.297…
$ adjdep     <dbl> 0.41865, 0.51688, 0.70699, 0.65639, 0.53518, 0.34042, 0.421…

df_ginz

# A tibble: 82 × 6
   simplicity fatalism depression adjsimp adjfatal adjdep
        <dbl>    <dbl>      <dbl>   <dbl>    <dbl>  <dbl>
 1      0.930   0.356       0.599   0.759   0.107   0.419
 2      0.911   1.18        0.728   0.727   0.999   0.517
 3      0.534  -0.0584      0.534   0.622   0.0381  0.707
 4      0.741   0.356       0.566   0.835   0.422   0.656
 5      0.534   0.770       0.502   0.477   0.814   0.535
 6      0.628   1.39        0.566   0.407   1.23    0.340
 7      0.779   0.356       0.470   0.846   0.298   0.422
 8      0.836   0.563       0.534   1.50    1.20    1.08 
 9      0.515   0.770       0.470   0.311   0.657   0.363
10      0.873   0.356       0.470   1.41    0.854   0.917
# ℹ 72 more rows
…
