Encyclopedia of Quantitative Methods in R, vol. 4: Multiple Linear Regression
…
data_ihno

## # A tibble: 100 x 18
##    sub_num gender major reason exp_cond coffee num_cups phobia prevmath
##      <dbl> <fct>  <fct> <fct>  <fct>    <fct>     <dbl>  <dbl>    <dbl>
##  1       1 Female Psyc~ Advis~ Easy     Regul~        0      1        3
##  2       2 Female Psyc~ Perso~ Easy     Not a~        0      1        4
##  3       3 Female Psyc~ Progr~ Easy     Not a~        0      4        1
##  4       4 Female Psyc~ Progr~ Easy     Not a~        0      4        0
##  5       5 Female Psyc~ Progr~ Easy     Not a~        1     10        1
##  6       6 Female Psyc~ Progr~ Moderate Regul~        1      4        1
##  7       7 Female Psyc~ Progr~ Moderate Not a~        0      4        2
##  8       8 Female Psyc~ Advis~ Moderate Regul~        2      4        1
##  9       9 Female Psyc~ Progr~ Moderate Not a~        0      4        1
## 10      10 Female Psyc~ Progr~ Moderate Regul~        2      5        0
## # ... with 90 more rows, and 9 more variables: mathquiz <dbl>,
## #   statquiz <dbl>, exp_sqz <dbl>, hr_base <dbl>, hr_pre <dbl>,
## #   hr_post <dbl>, anx_base <dbl>, anx_pre <dbl>, anx_post <dbl>
…
