7 Interactions Example | Encyclopedia of Quantitative Methods in R, vol. 4: Multiple Linear Regression
…
Residual standard error: 1.512 on 7 degrees of freedom
Multiple R-squared:  0.8376,    Adjusted R-squared:  0.7912 
F-statistic: 18.05 on 2 and 7 DF,  p-value: 0.001727

\[
\hat{Y} = 6 + 2X_{exercise} -0.5X_{food}
\]

effects::Effect(focal.predictors = c("exercise", "food"),
                mod = fit_lm) %>% 
  data.frame

# A tibble: 25 x 6
   exercise  food   fit    se lower upper
      <dbl> <dbl> <dbl> <dbl> <dbl> <dbl>
 1        0     2     5 0.929  2.80  7.20
 2        1     2     7 0.849  4.99  9.01
 3        2     2     9 0.894  6.89 11.1 
 4        3     2    11 1.05   8.52 13.5 
 5        4     2    13 1.27   9.99 16.0 
 6        0     4     4 0.781  2.15  5.85
 7        1     4     6 0.583  4.62  7.38
 8        2     4     8 0.540  6.72  9.28
 9        3     4    10 0.683  8.38 11.6 
10        4     4    12 0.929  9.80 14.2 
# ... with 15 more rows
…
