9 Logistic Regression - Ex: Maternal Risk Factor for Low Birth Weight Delivery | Encyclopedia of Quantitative Methods in R, vol. 4: Multiple Linear Regression
…
lowbwt_clean

# A tibble: 189 x 12
   id    low         age   lwt race  smoke ptl   ht    ui      ftv   bwt ptl_any
   <fct> <fct>     <int> <int> <fct> <fct> <fct> <fct> <fct> <int> <int> <fct>  
 1 85    birth we~    19   182 Black No    0     No    Yes       0  2523 No     
 2 86    birth we~    33   155 Other No    0     No    No        3  2551 No     
 3 87    birth we~    20   105 White Yes   0     No    No        1  2557 No     
 4 88    birth we~    21   108 White Yes   0     No    Yes       2  2594 No     
 5 89    birth we~    18   107 White Yes   0     No    Yes       0  2600 No     
 6 91    birth we~    21   124 Other No    0     No    No        0  2622 No     
 7 92    birth we~    22   118 White No    0     No    No        1  2637 No     
 8 93    birth we~    17   103 Other No    0     No    No        1  2637 No     
 9 94    birth we~    29   123 White Yes   0     No    No        1  2663 No     
10 95    birth we~    26   113 White Yes   0     No    No        0  2665 No     
# ... with 179 more rows
…
