11 Logistic Regression - Ex: volunteering (Hoffman) | Encyclopedia of Quantitative Methods in R, vol. 4: Multiple Linear Regression
…
11.2 Fit Model

df_gss_model <- df_gss %>% 
  dplyr::mutate(volrelig01 = case_when(volrelig == "no" ~ 0,
                                       volrelig == "yes" ~ 1)) %>% 
  dplyr::mutate(z_age = (age - 44.767)/16.850) %>% 
  dplyr::mutate(z_educ = (educate - 13.363)/2.928) %>% 
  dplyr::select(id, age, z_age, educate, z_educ, female, volrelig, volrelig01)

df_gss_model

# A tibble: 2,903 x 8
      id   age  z_age educate z_educ female volrelig volrelig01
   <dbl> <dbl>  <dbl>   <dbl>  <dbl> <fct>  <fct>         <dbl>
 1   402    54  0.548      12 -0.466 female no                0
 2  1473    24 -1.23       17  1.24  male   no                0
 3  1909    75  1.79        8 -1.83  female no                0
 4   334    41 -0.224      12 -0.466 female yes               1
 5  1751    37 -0.461      12 -0.466 male   yes               1
 6   456    40 -0.283      NA NA     female no                0
 7   292    36 -0.520      15  0.559 female no                0
 8  2817    33 -0.698      12 -0.466 female no                0
 9  2810    18 -1.59       11 -0.807 female no                0
10  2232    35 -0.580      14  0.218 male   no                0
# ... with 2,893 more rows
…
