3 Simple Linear Regression - Ex: Ventricular Shortening Velocity (single continuous IV) | Encyclopedia of Quantitative Methods in R, vol. 4: Multiple Linear Regression
…
3.3.3 Manually checking residual diagnostics

You may extract values from the model in dataset form and then you can maually plot the residuals.

thuesen %>% 
  dplyr::filter(complete.cases(.)) %>%            # keep only complete cases
  dplyr::mutate(pred = fitted(fit_vel_glu)) %>%   # fitted/prediction values
  dplyr::mutate(resid = residuals(fit_vel_glu))   # residual values

# A tibble: 23 x 4
   blood.glucose short.velocity  pred    resid
           <dbl>          <dbl> <dbl>    <dbl>
 1          15.3           1.76  1.43  0.326  
 2          10.8           1.34  1.34  0.00499
 3           8.1           1.27  1.28 -0.00571
 4          19.5           1.47  1.53 -0.0561 
 5           7.2           1.27  1.26  0.0141 
 6           5.3           1.49  1.21  0.276  
 7           9.3           1.31  1.30  0.00793
 8          11.1           1.09  1.34 -0.252  
 9           7.5           1.18  1.26 -0.0825 
10          12.2           1.22  1.37 -0.146  
# ... with 13 more rows
…
